https://www.onliner.by/
xpath:

1.//span[text()='Санки']
2.//span[contains(text(),'Санки')] 
3.//div[@id='adfox_154469864721127801']  #каталог
4 //a[contains(@href, 'superprice')] #все суперцены!
5.//a[contains(@class, 'footer-3-button') and @href='https://money.onliner.by'] #кнопка "все новости о финансах"
6 //span[text()='застрявшие' or @class='helpers_hide_mobile-small']
7.//body//div//div//div//div//div//div//div//header//div//div

css:
1..footer-3-button
2.#adfox_154469864721127801